Leon’s IS415 (GAA) Journey - Take-Home Exercise 2: Spatio-temporal Analysis of COVID-19 Vaccination Trends at the Sub-district Level, DKI Jakarta
…
4.1 Vaccination Calculation Rate

# grouping based on the sub-district and date
vaccination_rate <- vaccination_jakarta %>%
  inner_join(jar_main, by=c("Sub_District" = "Sub_District")) %>%
  group_by(Sub_District, Date) %>%
  dplyr::summarise(`vaccination_rate` = ((Target-Not_Yet_Vaccinated)/Target)*100) %>%
  
  #afterwards, pivots the table based on the Dates, using the cumulative case rate as the values
  ungroup() %>% pivot_wider(names_from = Date,
              values_from = vaccination_rate)

vaccination_rate

# A tibble: 261 x 13
   Sub_District  2021-~1 2021-~2 2021-~3 2021-~4 2021-~5 2021-~6 2022-~7 2022-~8
   <chr>           <dbl>   <dbl>   <dbl>   <dbl>   <dbl>   <dbl>   <dbl>   <dbl>
 1 ANCOL            48.5    61.6    72.1    75.0    76.9    78.9    80.6    80.8
 2 ANGKE            52.8    64.6    74.2    77.7    79.6    80.9    81.7    81.9
 3 BALE KAMBANG     37.0    57.0    70.0    73.9    76.6    78.2    79.5    79.7
 4 BALI MESTER      47.0    62.0    74.2    78.2    80.3    81.7    82.8    83.1
 5 BAMBU APUS       47.6    64.2    76.2    80.9    82.5    83.4    84.5    84.7
 6 BANGKA           51.6    61.3    73.2    78.0    79.8    80.7    81.5    81.7
 7 BARU             57.9    67.6    79.5    82.9    84.2    85.0    85.8    86.0
 8 BATU AMPAR       39.8    58.4    70.6    74.5    77.1    78.8    80.1    80.4
 9 BENDUNGAN HI~    53.6    62.6    75.6    79.1    80.5    81.4    82.3    82.5
10 BIDARA CINA      40.6    57.6    71.0    75.2    77.0    78.2    79.2    79.5
# ... with 251 more rows, 4 more variables: `2022-03-31` <dbl>,
#   `2022-04-30` <dbl>, `2022-05-31` <dbl>, `2022-06-30` <dbl>, and abbreviated
#   variable names 1: `2021-07-31`, 2: `2021-08-31`, 3: `2021-09-30`,
#   4: `2021-10-31`, 5: `2021-11-30`, 6: `2021-12-31`, 7: `2022-01-31`,
#   8: `2022-02-27`
…
6.1.1 Creating an Attribute Table

vacc_table <- combined_jakarta %>%
  select(10, 8, 11, 12) %>%
  st_drop_geometry()

vacc_table$Vaccination_Rate <- ((vacc_table$Target - vacc_table$Not_Yet_Vaccinated) / vacc_table$Target) * 100

vacc_table <- tibble(vacc_table %>%
                       select(1, 2, 5))

vacc_table

# A tibble: 3,132 x 3
   Date       Sub_District Vaccination_Rate
   <date>     <chr>                   <dbl>
 1 2022-02-27 KEAGUNGAN                84.2
 2 2022-04-30 KEAGUNGAN                85.1
 3 2022-06-30 KEAGUNGAN                85.3
 4 2021-11-30 KEAGUNGAN                82.2
 5 2021-09-30 KEAGUNGAN                75.8
 6 2021-08-31 KEAGUNGAN                65.2
 7 2021-12-31 KEAGUNGAN                83.2
 8 2022-01-31 KEAGUNGAN                84.0
 9 2021-07-31 KEAGUNGAN                53.3
10 2022-03-31 KEAGUNGAN                84.6
# ... with 3,122 more rows
…
6.1.4 Setting Seed

set.seed(1234)

6.1.5 Computing Gi* Value

gi_value <- vacc_rate_nb %>%
  group_by(Date) %>%
  mutate(gi_value = local_gstar_perm(
    Vaccination_Rate, nb, wt, nsim = 99)) %>%
    tidyr::unnest(gi_value)

gi_value

# A tibble: 3,132 x 13
# Groups:   Date [12]
   Date       Sub_District Vacci~1 nb    wt    gi_star    e_gi   var_gi  p_value
   <date>     <chr>          <dbl> <lis> <lis>   <dbl>   <dbl>    <dbl>    <dbl>
 1 2021-07-31 KEAGUNGAN       53.3 <int> <dbl>   -5.13 3.17e-4 2.95e-10 2.83e- 7
 2 2021-07-31 GLODOK          61.6 <int> <dbl>   -4.91 3.18e-4 2.81e-10 9.04e- 7
 3 2021-07-31 HARAPAN MUL~    49.7 <int> <dbl>   -6.54 3.19e-4 2.69e-10 6.18e-11
 4 2021-07-31 CEMPAKA BARU    46.7 <int> <dbl>   -7.88 3.21e-4 2.25e-10 3.23e-15
 5 2021-07-31 PASAR BARU      59.3 <int> <dbl>   -6.98 3.20e-4 1.78e-10 3.04e-12
 6 2021-07-31 KARANG ANYAR    52.2 <int> <dbl>   -7.22 3.20e-4 1.82e-10 5.30e-13
 7 2021-07-31 MANGGA DUA ~    51.6 <int> <dbl>   -8.12 3.20e-4 1.50e-10 4.83e-16
 8 2021-07-31 PETOJO UTARA    47.2 <int> <dbl>   -6.69 3.19e-4 2.77e-10 2.22e-11
 9 2021-07-31 SENEN           54.4 <int> <dbl>   -7.75 3.19e-4 1.69e-10 9.44e-15
10 2021-07-31 BUNGUR          52.8 <int> <dbl>   -7.79 3.20e-4 1.80e-10 6.86e-15
# ... with 3,122 more rows, 4 more variables: p_sim <dbl>, p_folded_sim <dbl>,
#   skewness <dbl>, kurtosis <dbl>, and abbreviated variable name
#   1: Vaccination_Rate
…
