IS415 - GAA (Leon) - Take-Home Exercise 1: Application of Spatial Point Patterns Analysis to Discover the Geographical Distribution of Functional and Non-Function Water Points in Osun State, Nigeria
…
1.2.2 Aspatial Data

wp_nga <- read_csv("data/aspatial/WPdx.csv")

1.2.2.1 Converting water point data into sf point features

wp_nga$Geometry = st_as_sfc(wp_nga$`New Georeferenced Column`)
wp_nga

# A tibble: 97,478 × 75
   row_id `#source`      #lat_…¹ #lon_…² #repo…³ #stat…⁴ #wate…⁵ #wate…⁶ #wate…⁷
    <dbl> <chr>            <dbl>   <dbl> <chr>   <chr>   <chr>   <chr>   <chr>  
 1 158721 Federal Minis…    5.07    6.62 02/19/… Yes     Boreho… Well    Mechan…
 2 158892 Federal Minis…    5.09    7.09 02/06/… Yes     Boreho… Well    Hand P…
 3 323117 Federal Minis…    5.91    8.77 08/31/… Yes     Boreho… Well    Hand P…
 4 300176 Federal Minis…    5.23    7.32 05/17/… Yes     Boreho… Well    Mechan…
 5 324346 Federal Minis…    6.88    3.36 08/17/… Yes     Boreho… Well    Mechan…
 6 297273 Federal Minis…    6.59    3.29 05/26/… Yes     Boreho… Well    Mechan…
 7 296853 Federal Minis…    6.60    3.26 06/02/… Yes     Boreho… Well    Mechan…
 8 323866 Federal Minis…    6.20    6.73 09/18/… Yes     Boreho… Well    Mechan…
 9 297044 Federal Minis…    6.61    3.30 05/26/… Yes     Boreho… Well    Mechan…
10 324321 Federal Minis…    6.96    3.60 08/16/… Yes     Boreho… Well    Mechan…
# … with 97,468 more rows, 66 more variables: `#water_tech_category` <chr>,
#   `#facility_type` <chr>, `#clean_country_name` <chr>, `#clean_adm1` <chr>,
#   `#clean_adm2` <chr>, `#clean_adm3` <lgl>, `#clean_adm4` <lgl>,
#   `#install_year` <dbl>, `#installer` <lgl>, `#rehab_year` <lgl>,
#   `#rehabilitator` <lgl>, `#management_clean` <chr>, `#status_clean` <chr>,
#   `#pay` <chr>, `#fecal_coliform_presence` <lgl>,
#   `#fecal_coliform_value` <lgl>, `#subjective_quality` <chr>, …

wp_sf <- st_sf(wp_nga, crs=4326)
wp_sf

Simple feature collection with 97478 features and 74 fields
Geometry type: POINT
Dimension:     XY
Bounding box:  xmin: 2.707441 ymin: 4.301812 xmax: 14.21828 ymax: 13.86568
Geodetic CRS:  WGS 84
# A tibble: 97,478 × 75
   row_id `#source`      #lat_…¹ #lon_…² #repo…³ #stat…⁴ #wate…⁵ #wate…⁶ #wate…⁷
 *  <dbl> <chr>            <dbl>   <dbl> <chr>   <chr>   <chr>   <chr>   <chr>  
 1 158721 Federal Minis…    5.07    6.62 02/19/… Yes     Boreho… Well    Mechan…
 2 158892 Federal Minis…    5.09    7.09 02/06/… Yes     Boreho… Well    Hand P…
 3 323117 Federal Minis…    5.91    8.77 08/31/… Yes     Boreho… Well    Hand P…
 4 300176 Federal Minis…    5.23    7.32 05/17/… Yes     Boreho… Well    Mechan…
 5 324346 Federal Minis…    6.88    3.36 08/17/… Yes     Boreho… Well    Mechan…
 6 297273 Federal Minis…    6.59    3.29 05/26/… Yes     Boreho… Well    Mechan…
 7 296853 Federal Minis…    6.60    3.26 06/02/… Yes     Boreho… Well    Mechan…
 8 323866 Federal Minis…    6.20    6.73 09/18/… Yes     Boreho… Well    Mechan…
 9 297044 Federal Minis…    6.61    3.30 05/26/… Yes     Boreho… Well    Mechan…
10 324321 Federal Minis…    6.96    3.60 08/16/… Yes     Boreho… Well    Mechan…
# … with 97,468 more rows, 66 more variables: `#water_tech_category` <chr>,
#   `#facility_type` <chr>, `#clean_country_name` <chr>, `#clean_adm1` <chr>,
#   `#clean_adm2` <chr>, `#clean_adm3` <lgl>, `#clean_adm4` <lgl>,
#   `#install_year` <dbl>, `#installer` <lgl>, `#rehab_year` <lgl>,
#   `#rehabilitator` <lgl>, `#management_clean` <chr>, `#status_clean` <chr>,
#   `#pay` <chr>, `#fecal_coliform_presence` <lgl>,
#   `#fecal_coliform_value` <lgl>, `#subjective_quality` <chr>, …
…
